{
"skeleton": { "hash": "dewed1oxDES9buKve2duiBWuU5U", "spine": "3.6.52", "width": 345.94, "height": 218.16, "images": "" },
"bones": [
	{ "name": "root" },
	{ "name": "eagle/mainframe", "parent": "root", "x": 0.7, "y": 134.03, "color": "abe323ff" },
	{ "name": "eagle/wing hand", "parent": "eagle/mainframe", "x": -55.65, "y": -20.23, "scaleX": 0.989, "scaleY": 0.989 },
	{ "name": "eagle/claw", "parent": "eagle/wing hand", "length": 25.84, "rotation": 136.74, "x": -23.14, "y": -21.56 },
	{ "name": "eagle/claw2", "parent": "eagle/wing hand", "length": 24.36, "rotation": 35.13, "x": 26.31, "y": -7.54 },
	{ "name": "eagle/claw3", "parent": "eagle/wing hand", "length": 26, "rotation": 34.59, "x": 4.91, "y": -16.4 },
	{ "name": "eagle/wing hand2", "parent": "eagle/mainframe", "x": 54.27, "y": -3.98 },
	{
		"name": "eagle/claw4",
		"parent": "eagle/wing hand2",
		"length": 25.14,
		"rotation": -32.62,
		"x": 31.69,
		"y": -7,
		"scaleX": 0.836,
		"scaleY": 0.836
	},
	{ "name": "eagle/claw5", "parent": "eagle/wing hand2", "length": 23.09, "rotation": -39.23, "x": 6.18, "y": -9.43 },
	{ "name": "eagle/claw6", "parent": "eagle/wing hand2", "length": 22.24, "rotation": -140.35, "x": -12, "y": -12.42 },
	{ "name": "eagle/head", "parent": "eagle/mainframe", "rotation": 3.36, "x": 81.87, "y": 23.56, "scaleX": 0.857, "scaleY": 0.857 },
	{
		"name": "eagle/rwing_gun copy",
		"parent": "eagle/wing hand",
		"length": 52.45,
		"rotation": -0.57,
		"x": 21.52,
		"y": 20.62,
		"scaleX": 0.864,
		"scaleY": 0.864
	},
	{
		"name": "eagle/rwing_gun copy2",
		"parent": "eagle/wing hand",
		"length": 54.8,
		"rotation": -1.56,
		"x": -56.68,
		"y": 20.3,
		"scaleX": 0.702
	},
	{ "name": "eagle/rwing_gun copy3", "parent": "eagle/wing hand", "length": 61.83, "rotation": -0.74, "x": -16.72, "y": 49.09 },
	{
		"name": "exhaust",
		"parent": "eagle/mainframe",
		"length": 62.21,
		"rotation": 178.61,
		"x": -101.12,
		"y": 41.57,
		"scaleX": 0.153,
		"color": "abe323ff"
	}
],
"slots": [
	{ "name": "eagle/wing hand2", "bone": "eagle/wing hand2", "attachment": "eagle/wing hand" },
	{ "name": "eagle/claw4", "bone": "eagle/claw4", "attachment": "eagle/claw" },
	{ "name": "eagle/claw5", "bone": "eagle/claw5", "attachment": "eagle/claw" },
	{ "name": "eagle/claw6", "bone": "eagle/claw6", "attachment": "eagle/claw" },
	{ "name": "eagle/cockpit_back", "bone": "eagle/mainframe", "attachment": "eagle/cockpit_back" },
	{ "name": "eagle/flag_02", "bone": "eagle/mainframe", "attachment": "eagle/flag_02" },
	{ "name": "eagle/exhaust_fire", "bone": "exhaust", "attachment": "eagle/exhaust_fire" },
	{ "name": "eagle/head", "bone": "eagle/head", "attachment": "eagle/head" },
	{ "name": "eagle/mainframe", "bone": "eagle/mainframe", "attachment": "eagle/mainframe" },
	{ "name": "eagle/flag_01", "bone": "eagle/mainframe", "attachment": "eagle/flag_01" },
	{ "name": "eagle/wing hand", "bone": "eagle/wing hand", "attachment": "eagle/wing hand" },
	{ "name": "eagle/rwing_gun copy", "bone": "eagle/rwing_gun copy", "attachment": "eagle/rwing_gun copy" },
	{ "name": "eagle/claw2", "bone": "eagle/claw2", "attachment": "eagle/claw" },
	{ "name": "eagle/rwing_gun copy3", "bone": "eagle/rwing_gun copy3", "attachment": "eagle/rwing_gun copy" },
	{ "name": "eagle/claw3", "bone": "eagle/claw3", "attachment": "eagle/claw" },
	{ "name": "eagle/Group 2", "bone": "eagle/rwing_gun copy3", "attachment": "eagle/Group 3" },
	{ "name": "eagle/rwing_gun copy2", "bone": "eagle/rwing_gun copy2", "attachment": "eagle/rwing_gun copy" },
	{ "name": "eagle/Group 3", "bone": "eagle/rwing_gun copy2", "attachment": "eagle/Group 2" },
	{ "name": "eagle/claw", "bone": "eagle/claw", "attachment": "eagle/claw" }
],
"transform": [
	{
		"name": "eagle/mainframe",
		"order": 0,
		"bones": [ "eagle/wing hand", "eagle/wing hand2", "eagle/head", "eagle/rwing_gun copy2", "eagle/rwing_gun copy3", "eagle/rwing_gun copy" ],
		"target": "eagle/mainframe",
		"rotateMix": 0,
		"translateMix": 0,
		"scaleMix": 0,
		"shearMix": 0
	}
],
"skins": {
	"default": {
		"eagle/Group 2": {
			"eagle/Group 3": {
				"type": "mesh",
				"path": "eagle/Group 2",
				"uvs": [ 1, 0.17384, 0.72194, 0.52219, 0.68106, 0.73447, 0.16173, 1, 0.26014, 0.45687, 0.38076, 0.11642, 0.59556, 0, 0.44789, 0.67459, 0.60508, 0.22482 ],
				"triangles": [ 8, 6, 0, 5, 6, 8, 4, 5, 8, 1, 8, 0, 4, 8, 1, 7, 4, 1, 2, 7, 1, 3, 4, 7, 3, 7, 2 ],
				"vertices": [ 68.63, 33.37, 29.08, 5.04, 23.43, -11.99, -50.84, -34.16, -37.28, 9.39, -20.32, 36.8, 10.4, 46.5, -10.1, -7.64, 11.99, 28.57 ],
				"hull": 7,
				"edges": [ 12, 10, 10, 8, 8, 6, 6, 4, 4, 2, 2, 0, 0, 12, 6, 14, 0, 16 ],
				"width": 142,
				"height": 79
			}
		},
		"eagle/Group 3": {
			"eagle/Group 2": {
				"type": "mesh",
				"uvs": [ 1, 0.17384, 0.72194, 0.52219, 0.68106, 0.73447, 0.16173, 1, 0.26014, 0.45687, 0.38076, 0.11642, 0.59556, 0, 0.44789, 0.67459, 0.60508, 0.22482 ],
				"triangles": [ 8, 6, 0, 5, 6, 8, 4, 5, 8, 1, 8, 0, 4, 8, 1, 7, 4, 1, 2, 7, 1, 3, 4, 7, 3, 7, 2 ],
				"vertices": [ 91.31, 31.03, 36.36, 1.4, 29.12, -15.8, -75.51, -40.41, -58.26, 3.57, -35.41, 31.53, 7.84, 42.23, -18.79, -12.56, 10.95, 24.36 ],
				"hull": 7,
				"edges": [ 12, 10, 10, 8, 8, 6, 6, 4, 4, 2, 2, 0, 0, 12, 6, 14, 0, 16 ],
				"width": 142,
				"height": 79
			}
		},
		"eagle/claw": {
			"eagle/claw": { "x": 27.84, "y": -13.48, "scaleX": -1, "rotation": -136.74, "width": 43, "height": 77 }
		},
		"eagle/claw2": {
			"eagle/claw": { "x": 25.41, "y": 8.1, "scaleX": 0.83, "scaleY": 0.83, "rotation": -44.58, "width": 43, "height": 77 }
		},
		"eagle/claw3": {
			"eagle/claw": { "x": 25.93, "y": 15.77, "rotation": -33.61, "width": 43, "height": 77 }
		},
		"eagle/claw4": {
			"eagle/claw": { "x": 24.91, "y": -9.23, "scaleX": 1.046, "scaleY": -0.723, "rotation": 44.13, "width": 43, "height": 77 }
		},
		"eagle/claw5": {
			"eagle/claw": { "x": 24.98, "y": -12.66, "scaleX": 0.868, "scaleY": -0.871, "rotation": 39.23, "width": 43, "height": 77 }
		},
		"eagle/claw6": {
			"eagle/claw": { "x": 24.32, "y": 12.95, "scaleX": -1.036, "scaleY": -0.901, "rotation": 140.35, "width": 43, "height": 77 }
		},
		"eagle/cockpit_back": {
			"eagle/cockpit_back": { "x": 89.36, "y": 35.47, "width": 118, "height": 111 }
		},
		"eagle/exhaust_fire": {
			"eagle/exhaust_fire": { "x": 55.96, "y": -3.17, "rotation": 178.35, "width": 114, "height": 53 }
		},
		"eagle/flag_01": {
			"eagle/flag_01": {
				"type": "mesh",
				"uvs": [ 0.79169, 0.18815, 0.92363, 0.22863, 1, 0.36823, 1, 0.47624, 0.92915, 0.43871, 0.92287, 0.57636, 0.86183, 0.66808, 0.7806, 1, 0.56218, 1, 0.62977, 0.87772, 0.42844, 0.92023, 0.25131, 0.83103, 0, 0.80073, 0.2278, 0.50158, 0.41364, 0.44684, 0.44378, 0.35944, 0.37978, 0.23011, 0.26757, 0.2075, 0.43259, 0, 0.58103, 0, 0.80266, 0.4498, 0.61375, 0.4999, 0.96649, 0.3676, 0.52507, 0.58401, 0.58717, 0.28021 ],
				"triangles": [ 16, 17, 18, 24, 19, 0, 16, 19, 24, 19, 16, 18, 15, 16, 24, 2, 22, 1, 22, 20, 1, 20, 0, 1, 4, 20, 22, 24, 0, 20, 3, 4, 22, 2, 3, 22, 21, 24, 20, 15, 24, 21, 14, 15, 21, 5, 20, 4, 23, 14, 21, 6, 20, 5, 23, 11, 13, 23, 13, 14, 12, 13, 11, 21, 6, 23, 6, 21, 20, 9, 23, 6, 10, 11, 23, 9, 10, 23, 7, 9, 6, 8, 9, 7 ],
				"vertices": [ 53.12, 108.81, 78.78, 105.71, 93.46, 96.84, 93.3, 90.25, 79.54, 92.88, 78.11, 84.51, 66.08, 79.21, 49.75, 59.35, 7.17, 60.39, 20.53, 67.52, -18.78, 65.89, -53.18, 72.16, -102.13, 75.2, -57.28, 92.37, -20.97, 94.82, -14.96, 100.01, -27.25, 108.2, -49.09, 110.11, -16.61, 121.98, 12.33, 121.28, 54.87, 92.8, 17.97, 90.64, 86.93, 97.04, 0.55, 85.93, 13.11, 104.16 ],
				"hull": 20,
				"edges": [ 36, 34, 34, 32, 32, 30, 30, 28, 28, 26, 26, 24, 24, 22, 22, 20, 20, 18, 18, 16, 14, 16, 14, 12, 12, 10, 10, 8, 8, 6, 2, 0, 36, 38, 0, 38, 8, 40, 40, 42, 6, 44, 44, 2, 6, 4, 44, 4, 42, 46, 42, 48, 2, 4 ],
				"width": 195,
				"height": 61
			}
		},
		"eagle/flag_02": {
			"eagle/flag_02": {
				"type": "mesh",
				"uvs": [ 1, 0.29537, 0.83422, 0.74044, 0.46349, 1, 0, 0.40512, 0.41745, 0.18563, 0.4853, 0, 0.73487, 0, 0.61082, 0.44008 ],
				"triangles": [ 6, 4, 5, 7, 6, 0, 7, 4, 6, 3, 4, 7, 1, 7, 0, 2, 3, 7, 2, 7, 1 ],
				"vertices": [ -72.49, 89.95, -85.42, 76.15, -114.34, 68.1, -150.49, 86.55, -117.93, 93.35, -112.64, 99.1, -93.17, 99.1, -102.85, 85.46 ],
				"hull": 7,
				"edges": [ 10, 8, 8, 6, 6, 4, 4, 2, 2, 0, 10, 12, 0, 12, 6, 14 ],
				"width": 78,
				"height": 31
			}
		},
		"eagle/head": {
			"eagle/head": { "x": 28.01, "y": 3.78, "scaleX": 1.065, "scaleY": 1.065, "width": 109, "height": 84 }
		},
		"eagle/mainframe": {
			"eagle/mainframe": { "x": 29.2, "y": 58.59, "width": 303, "height": 166 }
		},
		"eagle/rwing_gun copy": {
			"eagle/rwing_gun copy": { "x": 30.63, "y": 0.11, "scaleX": 0.997, "scaleY": 0.997, "rotation": 0.57, "width": 132, "height": 69 }
		},
		"eagle/rwing_gun copy2": {
			"eagle/rwing_gun copy": { "x": 24.73, "y": -1.89, "scaleX": 1.424, "rotation": -0.18, "width": 132, "height": 69 }
		},
		"eagle/rwing_gun copy3": {
			"eagle/rwing_gun copy": { "x": 24.66, "y": -1.08, "rotation": 0.52, "width": 132, "height": 69 }
		},
		"eagle/wing hand": {
			"eagle/wing hand": { "x": 0.44, "y": -14.76, "width": 109, "height": 57 }
		},
		"eagle/wing hand2": {
			"eagle/wing hand": { "x": -7.25, "y": -12.61, "scaleX": -0.811, "scaleY": -0.811, "rotation": 177.47, "width": 109, "height": 57 }
		}
	}
},
"animations": {
	"attack": {
		"bones": {
			"eagle/wing hand2": {
				"rotate": [
					{ "time": 0, "angle": 0 },
					{ "time": 0.3333, "angle": 56.01 },
					{ "time": 0.4333, "angle": 38.99 },
					{ "time": 0.5, "angle": -29.9, "curve": "stepped" },
					{ "time": 0.6, "angle": -29.9 },
					{ "time": 0.8333, "angle": 0 }
				],
				"translate": [
					{ "time": 0, "x": 0, "y": 0 },
					{ "time": 0.3333, "x": -18.28, "y": 148.23 },
					{ "time": 0.4333, "x": 126.49, "y": 97.54 },
					{ "time": 0.5, "x": 158.57, "y": -36.5, "curve": "stepped" },
					{ "time": 0.6, "x": 158.57, "y": -36.5 },
					{ "time": 0.8333, "x": 0, "y": 0 }
				]
			},
			"eagle/wing hand": {
				"translate": [
					{ "time": 0.0667, "x": 0, "y": 0 },
					{ "time": 0.3333, "x": 30.04, "y": -25.47, "curve": "stepped" },
					{ "time": 0.6667, "x": 30.04, "y": -25.47 },
					{ "time": 0.8333, "x": 0, "y": 0 }
				]
			},
			"eagle/mainframe": {
				"translate": [
					{ "time": 0, "x": 0, "y": 0 },
					{ "time": 0.3333, "x": -22.91, "y": -25.78 },
					{ "time": 0.5, "x": 27.92, "y": -25.78 },
					{ "time": 0.6, "x": -22.91, "y": -25.78 },
					{ "time": 0.8333, "x": 0, "y": 0 }
				],
				"scale": [
					{ "time": 0.3333, "x": 1, "y": 1 },
					{ "time": 0.5, "x": 1.158, "y": 0.914 },
					{ "time": 0.6, "x": 1, "y": 1 }
				]
			}
		},
		"transform": {
			"eagle/mainframe": [
				{ "time": 0, "rotateMix": 0, "translateMix": 0, "scaleMix": 0, "shearMix": 0 },
				{ "time": 0.3333, "rotateMix": 0, "translateMix": 0.138, "scaleMix": 0, "shearMix": 0, "curve": "stepped" },
				{ "time": 0.6, "rotateMix": 0, "translateMix": 0.138, "scaleMix": 0, "shearMix": 0 },
				{ "time": 0.8333, "rotateMix": 0, "translateMix": 0, "scaleMix": 0, "shearMix": 0 }
			]
		},
		"deform": {
			"default": {
				"eagle/Group 3": {
					"eagle/Group 2": [
						{ "time": 0.3333 },
						{
							"time": 0.4,
							"offset": 6,
							"vertices": [ -51.78731, 0.95686, -35.23595, 6.4592 ]
						},
						{
							"time": 0.5,
							"offset": 6,
							"vertices": [ -21.82742, 79.18237, -32.06229, 11.95654 ]
						},
						{ "time": 0.8333 }
					]
				}
			}
		}
	},
	"back": {
		"bones": {
			"eagle/mainframe": {
				"translate": [
					{ "time": 0, "x": 0, "y": 0 },
					{ "time": 0.3333, "x": 0, "y": 10.77 },
					{ "time": 0.6667, "x": 0, "y": 0 }
				],
				"scale": [
					{ "time": 0, "x": 1, "y": 1 },
					{ "time": 0.3333, "x": 1.01, "y": 0.99 },
					{ "time": 0.6667, "x": 1, "y": 1 }
				]
			},
			"eagle/wing hand": {
				"translate": [
					{ "time": 0, "x": 0, "y": 0 },
					{ "time": 0.4, "x": 3.56, "y": -13.61 },
					{ "time": 0.6667, "x": 0, "y": 0 }
				]
			},
			"eagle/rwing_gun copy3": {
				"translate": [
					{ "time": 0.0667, "x": 0, "y": 0 },
					{ "time": 0.2667, "x": 0, "y": 8.39 },
					{ "time": 0.6667, "x": 0, "y": 0 }
				]
			},
			"eagle/claw": {
				"rotate": [
					{ "time": 0, "angle": 0 },
					{ "time": 0.3333, "angle": 8.9 },
					{ "time": 0.6667, "angle": 0 }
				]
			},
			"eagle/claw3": {
				"rotate": [
					{ "time": 0.1667, "angle": 0 },
					{ "time": 0.5, "angle": -5.41 },
					{ "time": 0.6667, "angle": 0 }
				]
			},
			"eagle/wing hand2": {
				"translate": [
					{ "time": 0, "x": 0, "y": 0 },
					{ "time": 0.2667, "x": 0, "y": -16.19 },
					{ "time": 0.6667, "x": 0, "y": 0 }
				]
			},
			"eagle/claw6": {
				"rotate": [
					{ "time": 0, "angle": 0 },
					{ "time": 0.3, "angle": 11.77 },
					{ "time": 0.6667, "angle": 0 }
				]
			},
			"eagle/claw5": {
				"rotate": [
					{ "time": 0, "angle": 0 },
					{ "time": 0.3, "angle": -24.45 },
					{ "time": 0.6667, "angle": 0 }
				]
			},
			"eagle/claw4": {
				"rotate": [
					{ "time": 0, "angle": 0 },
					{ "time": 0.3, "angle": -33.78 },
					{ "time": 0.6667, "angle": 0 }
				]
			},
			"eagle/head": {
				"translate": [
					{ "time": 0, "x": 0, "y": 0 },
					{ "time": 0.3333, "x": -9.64, "y": -7.57 },
					{ "time": 0.6667, "x": 0, "y": 0 }
				]
			},
			"exhaust": {
				"scale": [
					{ "time": 0, "x": 4.866, "y": 1 },
					{ "time": 0.1667, "x": 7.987, "y": 1.261 },
					{ "time": 0.3333, "x": 4.866, "y": 1 },
					{ "time": 0.5, "x": 7.987, "y": 1.261 },
					{ "time": 0.6667, "x": 4.866, "y": 1 }
				]
			}
		},
		"deform": {
			"default": {
				"eagle/Group 2": {
					"eagle/Group 3": [
						{ "time": 0.0667 },
						{
							"time": 0.2667,
							"offset": 6,
							"vertices": [ -7.56646, 24.88793, -9.16378, 12.75335 ]
						},
						{
							"time": 0.4667,
							"offset": 6,
							"vertices": [ -12.97107, 42.66503, 0.67886, 4.98839 ]
						},
						{ "time": 0.6667 }
					]
				},
				"eagle/Group 3": {
					"eagle/Group 2": [
						{ "time": 0 },
						{
							"time": 0.2333,
							"offset": 6,
							"vertices": [ -7.56646, 24.88793, -9.16378, 12.75335 ]
						},
						{
							"time": 0.4,
							"offset": 6,
							"vertices": [ -12.97107, 42.66503, 0.67886, 4.98839 ]
						},
						{ "time": 0.6667 }
					]
				},
				"eagle/flag_01": {
					"eagle/flag_01": [
						{ "time": 0 },
						{
							"time": 0.3333,
							"offset": 2,
							"vertices": [ -5.09898, -1.04114, 0, 0, 0, 0, 0, 0, 0, 0, 0, 0, -2.03961, -3.12248, 4.07918, -5.72356, 0, 0, 0, 0, 0, 0, 1.52968, -12.48586, -10.70792, -5.20277, 0, 0, 0, 0, 0, 0, -1.0198, -4.16188, 0, -3.64178, 0, -5.20221 ]
						},
						{
							"time": 0.5,
							"offset": 2,
							"vertices": [ -5.09898, -1.04114, 0, 0, 0, 0, 0, 0, 0, 0, 0, 0, 5.9325, -4.55672, 20.69709, -4.6308, 0, 0, 5.42587, 12.69051, 2.01392, 7.12509, 2.0446, 17.04184, -10.70792, -5.20277, 0, 0, 0, 0, -1.8468, 1.7374, -6.44564, 12.85588, 0, -3.64178, 0, -5.20221 ]
						},
						{ "time": 0.6667 }
					]
				},
				"eagle/flag_02": {
					"eagle/flag_02": [
						{ "time": 0 },
						{
							"time": 0.3333,
							"offset": 4,
							"vertices": [ -5.03468, -1.2E-4, 5.75348, 3.45955, 0, 0, 2.79701, -2.28481 ]
						},
						{
							"time": 0.5,
							"offset": 4,
							"vertices": [ -2.51734, -6.0E-5, 11.59534, -19.81933, -4.18905, -3.3853, 1.39851, -1.1424, 0, 0, -1.67562, 7.19279 ]
						},
						{ "time": 0.6667 }
					]
				}
			}
		}
	},
	"block": {
		"bones": {
			"eagle/head": {
				"rotate": [
					{ "time": 0.1, "angle": 0 },
					{ "time": 0.3333, "angle": -39.46, "curve": "stepped" },
					{ "time": 0.6667, "angle": -39.46 },
					{ "time": 0.8333, "angle": 0 }
				],
				"translate": [
					{ "time": 0, "x": 0, "y": 0 },
					{ "time": 0.3333, "x": -40.1, "y": 21.6, "curve": "stepped" },
					{ "time": 0.6667, "x": -40.1, "y": 21.6 },
					{ "time": 0.8333, "x": 0, "y": 0 }
				]
			},
			"eagle/mainframe": {
				"rotate": [
					{ "time": 0, "angle": 0 },
					{ "time": 0.3333, "angle": 92.59 },
					{ "time": 0.6667, "angle": 81.86 },
					{ "time": 0.8333, "angle": 0 }
				]
			},
			"eagle/wing hand": {
				"rotate": [
					{ "time": 0, "angle": 0 },
					{ "time": 0.3333, "angle": -92.99, "curve": "stepped" },
					{ "time": 0.6667, "angle": -92.99 },
					{ "time": 0.8333, "angle": 0 }
				],
				"translate": [
					{ "time": 0, "x": 0, "y": 0 },
					{ "time": 0.3333, "x": -44.11, "y": 63.21, "curve": "stepped" },
					{ "time": 0.6667, "x": -44.11, "y": 63.21 },
					{ "time": 0.8333, "x": 0, "y": 0 }
				]
			},
			"eagle/wing hand2": {
				"rotate": [
					{ "time": 0.2333, "angle": 0 },
					{ "time": 0.3333, "angle": 1.89, "curve": "stepped" },
					{ "time": 0.6667, "angle": 1.89 },
					{ "time": 0.8333, "angle": 0 }
				],
				"translate": [
					{ "time": 0.2333, "x": 0, "y": 0 },
					{ "time": 0.3333, "x": -46.76, "y": -8.54, "curve": "stepped" },
					{ "time": 0.6667, "x": -46.76, "y": -8.54 },
					{ "time": 0.8333, "x": 0, "y": 0 }
				]
			}
		}
	},
	"dodge": {
		"bones": {
			"eagle/head": {
				"rotate": [
					{ "time": 0.1, "angle": 0 },
					{ "time": 0.3333, "angle": -39.46, "curve": "stepped" },
					{ "time": 0.6667, "angle": -39.46 },
					{ "time": 1, "angle": 0 }
				],
				"translate": [
					{ "time": 0, "x": 0, "y": 0 },
					{ "time": 0.3333, "x": -40.1, "y": 21.6, "curve": "stepped" },
					{ "time": 0.6667, "x": -40.1, "y": 21.6 },
					{ "time": 1, "x": 0, "y": 0 }
				]
			},
			"eagle/mainframe": {
				"rotate": [
					{ "time": 0, "angle": 0 },
					{ "time": 0.3333, "angle": 92.59 },
					{ "time": 0.6667, "angle": -176.29 },
					{ "time": 1, "angle": 0 }
				]
			},
			"eagle/wing hand": {
				"rotate": [
					{ "time": 0, "angle": 0 },
					{ "time": 0.3333, "angle": -92.99 },
					{ "time": 0.6667, "angle": 178.13 },
					{ "time": 1, "angle": 0 }
				],
				"translate": [
					{ "time": 0, "x": 0, "y": 0 },
					{ "time": 0.3333, "x": -44.11, "y": 63.21 },
					{ "time": 0.6667, "x": 56.99, "y": 123.48 },
					{ "time": 1, "x": 0, "y": 0 }
				]
			},
			"eagle/wing hand2": {
				"rotate": [
					{ "time": 0.2333, "angle": 0 },
					{ "time": 0.3333, "angle": 1.89, "curve": "stepped" },
					{ "time": 0.6667, "angle": 1.89 },
					{ "time": 1, "angle": 0 }
				],
				"translate": [
					{ "time": 0.2333, "x": 0, "y": 0 },
					{ "time": 0.3333, "x": -46.76, "y": -8.54, "curve": "stepped" },
					{ "time": 0.6667, "x": -46.76, "y": -8.54 },
					{ "time": 1, "x": 0, "y": 0 }
				]
			}
		}
	},
	"feign": {
		"bones": {
			"eagle/wing hand2": {
				"rotate": [
					{ "time": 0, "angle": 0 },
					{ "time": 0.3333, "angle": 56.01 },
					{ "time": 0.4667, "angle": 137.67 },
					{ "time": 0.6667, "angle": 0 }
				],
				"translate": [
					{ "time": 0, "x": 0, "y": 0 },
					{ "time": 0.3333, "x": -18.28, "y": 148.23, "curve": "stepped" },
					{ "time": 0.4667, "x": -18.28, "y": 148.23 },
					{ "time": 0.6667, "x": 0, "y": 0 }
				]
			},
			"eagle/wing hand": {
				"translate": [
					{ "time": 0.0667, "x": 0, "y": 0 },
					{ "time": 0.3333, "x": 30.04, "y": -25.47, "curve": "stepped" },
					{ "time": 0.5, "x": 30.04, "y": -25.47 },
					{ "time": 0.6667, "x": 0, "y": 0 }
				]
			},
			"eagle/mainframe": {
				"translate": [
					{ "time": 0, "x": 0, "y": 0 },
					{ "time": 0.3333, "x": -22.91, "y": -25.78, "curve": "stepped" },
					{ "time": 0.4667, "x": -22.91, "y": -25.78 },
					{ "time": 0.6667, "x": 0, "y": 0 }
				]
			}
		},
		"transform": {
			"eagle/mainframe": [
				{ "time": 0, "rotateMix": 0, "translateMix": 0, "scaleMix": 0, "shearMix": 0 },
				{ "time": 0.3333, "rotateMix": 0, "translateMix": 0.138, "scaleMix": 0, "shearMix": 0, "curve": "stepped" },
				{ "time": 0.4667, "rotateMix": 0, "translateMix": 0.138, "scaleMix": 0, "shearMix": 0 },
				{ "time": 0.6667, "rotateMix": 0, "translateMix": 0, "scaleMix": 0, "shearMix": 0 }
			]
		},
		"deform": {
			"default": {
				"eagle/Group 3": {
					"eagle/Group 2": [
						{ "time": 0.3333 }
					]
				}
			}
		}
	},
	"forward": {
		"bones": {
			"eagle/mainframe": {
				"translate": [
					{ "time": 0, "x": 0, "y": 0 },
					{ "time": 0.3333, "x": 0, "y": 10.77 },
					{ "time": 0.6667, "x": 0, "y": 0 }
				],
				"scale": [
					{ "time": 0, "x": 1, "y": 1 },
					{ "time": 0.3333, "x": 1.01, "y": 0.99 },
					{ "time": 0.6667, "x": 1, "y": 1 }
				]
			},
			"eagle/wing hand": {
				"translate": [
					{ "time": 0, "x": 0, "y": 0 },
					{ "time": 0.4, "x": 3.56, "y": -13.61 },
					{ "time": 0.6667, "x": 0, "y": 0 }
				]
			},
			"eagle/rwing_gun copy3": {
				"translate": [
					{ "time": 0.0667, "x": 0, "y": 0 },
					{ "time": 0.2667, "x": 0, "y": 8.39 },
					{ "time": 0.6667, "x": 0, "y": 0 }
				]
			},
			"eagle/claw": {
				"rotate": [
					{ "time": 0, "angle": 0 },
					{ "time": 0.3333, "angle": 8.9 },
					{ "time": 0.6667, "angle": 0 }
				]
			},
			"eagle/claw3": {
				"rotate": [
					{ "time": 0.1667, "angle": 0 },
					{ "time": 0.5, "angle": -5.41 },
					{ "time": 0.6667, "angle": 0 }
				]
			},
			"eagle/wing hand2": {
				"translate": [
					{ "time": 0, "x": 0, "y": 0 },
					{ "time": 0.2667, "x": 0, "y": -16.19 },
					{ "time": 0.6667, "x": 0, "y": 0 }
				]
			},
			"eagle/claw6": {
				"rotate": [
					{ "time": 0, "angle": 0 },
					{ "time": 0.3, "angle": 11.77 },
					{ "time": 0.6667, "angle": 0 }
				]
			},
			"eagle/claw5": {
				"rotate": [
					{ "time": 0, "angle": 0 },
					{ "time": 0.3, "angle": -24.45 },
					{ "time": 0.6667, "angle": 0 }
				]
			},
			"eagle/claw4": {
				"rotate": [
					{ "time": 0, "angle": 0 },
					{ "time": 0.3, "angle": -33.78 },
					{ "time": 0.6667, "angle": 0 }
				]
			},
			"eagle/head": {
				"translate": [
					{ "time": 0, "x": 0, "y": 0 },
					{ "time": 0.3333, "x": -9.64, "y": -7.57 },
					{ "time": 0.6667, "x": 0, "y": 0 }
				]
			},
			"exhaust": {
				"scale": [
					{ "time": 0, "x": 4.866, "y": 1 },
					{ "time": 0.1667, "x": 7.987, "y": 1.261 },
					{ "time": 0.3333, "x": 4.866, "y": 1 },
					{ "time": 0.5, "x": 7.987, "y": 1.261 },
					{ "time": 0.6667, "x": 4.866, "y": 1 }
				]
			}
		},
		"deform": {
			"default": {
				"eagle/Group 2": {
					"eagle/Group 3": [
						{ "time": 0.0667 },
						{
							"time": 0.2667,
							"offset": 6,
							"vertices": [ -7.56646, 24.88793, -9.16378, 12.75335 ]
						},
						{
							"time": 0.4667,
							"offset": 6,
							"vertices": [ -12.97107, 42.66503, 0.67886, 4.98839 ]
						},
						{ "time": 0.6667 }
					]
				},
				"eagle/Group 3": {
					"eagle/Group 2": [
						{ "time": 0 },
						{
							"time": 0.2333,
							"offset": 6,
							"vertices": [ -7.56646, 24.88793, -9.16378, 12.75335 ]
						},
						{
							"time": 0.4,
							"offset": 6,
							"vertices": [ -12.97107, 42.66503, 0.67886, 4.98839 ]
						},
						{ "time": 0.6667 }
					]
				},
				"eagle/flag_01": {
					"eagle/flag_01": [
						{ "time": 0 },
						{
							"time": 0.3333,
							"offset": 2,
							"vertices": [ -5.09898, -1.04114, 0, 0, 0, 0, 0, 0, 0, 0, 0, 0, -2.03961, -3.12248, 4.07918, -5.72356, 0, 0, 0, 0, 0, 0, 1.52968, -12.48586, -10.70792, -5.20277, 0, 0, 0, 0, 0, 0, -1.0198, -4.16188, 0, -3.64178, 0, -5.20221 ]
						},
						{
							"time": 0.5,
							"offset": 2,
							"vertices": [ -5.09898, -1.04114, 0, 0, 0, 0, 0, 0, 0, 0, 0, 0, 5.9325, -4.55672, 20.69709, -4.6308, 0, 0, 5.42587, 12.69051, 2.01392, 7.12509, 2.0446, 17.04184, -10.70792, -5.20277, 0, 0, 0, 0, -1.8468, 1.7374, -6.44564, 12.85588, 0, -3.64178, 0, -5.20221 ]
						},
						{ "time": 0.6667 }
					]
				},
				"eagle/flag_02": {
					"eagle/flag_02": [
						{ "time": 0 },
						{
							"time": 0.3333,
							"offset": 4,
							"vertices": [ -5.03468, -1.2E-4, 5.75348, 3.45955, 0, 0, 2.79701, -2.28481 ]
						},
						{
							"time": 0.5,
							"offset": 4,
							"vertices": [ -2.51734, -6.0E-5, 11.59534, -19.81933, -4.18905, -3.3853, 1.39851, -1.1424, 0, 0, -1.67562, 7.19279 ]
						},
						{ "time": 0.6667 }
					]
				}
			}
		}
	},
	"hit": {
		"bones": {
			"eagle/mainframe": {
				"rotate": [
					{ "time": 0, "angle": 0 },
					{ "time": 0.3333, "angle": 17.27 },
					{ "time": 0.5, "angle": 0 }
				],
				"translate": [
					{ "time": 0, "x": 0, "y": 0 },
					{ "time": 0.3333, "x": -10.24, "y": 25.59 },
					{ "time": 0.5, "x": 0, "y": 0 }
				]
			},
			"eagle/wing hand": {
				"rotate": [
					{ "time": 0, "angle": 0 },
					{ "time": 0.3333, "angle": -19.71 },
					{ "time": 0.5, "angle": 0 }
				],
				"translate": [
					{ "time": 0, "x": 0, "y": 0 },
					{ "time": 0.3333, "x": 7.41, "y": -19.27 },
					{ "time": 0.5, "x": 0, "y": 0 }
				]
			},
			"eagle/rwing_gun copy2": {
				"translate": [
					{ "time": 0.1667, "x": 0, "y": 0 },
					{ "time": 0.3333, "x": -0.62, "y": 14.45 },
					{ "time": 0.5667, "x": 0, "y": 0 }
				]
			},
			"eagle/claw": {
				"rotate": [
					{ "time": 0.1667, "angle": 0 },
					{ "time": 0.3333, "angle": -15.54 },
					{ "time": 0.5667, "angle": 0 }
				]
			},
			"eagle/rwing_gun copy3": {
				"translate": [
					{ "time": 0.3, "x": 0, "y": 0 },
					{ "time": 0.4333, "x": -0.4, "y": 11.88 },
					{ "time": 0.6333, "x": 0, "y": 0 }
				]
			},
			"eagle/wing hand2": {
				"rotate": [
					{ "time": 0, "angle": 0 },
					{ "time": 0.2333, "angle": 39.11 },
					{ "time": 0.6333, "angle": 0 }
				],
				"translate": [
					{ "time": 0, "x": 0, "y": 0 },
					{ "time": 0.2333, "x": -24.57, "y": 31.48 },
					{ "time": 0.6333, "x": 0, "y": 0 }
				]
			},
			"eagle/head": {
				"rotate": [
					{ "time": 0, "angle": 0 },
					{ "time": 0.2333, "angle": -22.83 },
					{ "time": 0.6333, "angle": 0 }
				],
				"translate": [
					{ "time": 0, "x": 0, "y": 0 },
					{ "time": 0.2333, "x": -36.17, "y": 2 },
					{ "time": 0.6333, "x": 0, "y": 0 }
				]
			}
		},
		"transform": {
			"eagle/mainframe": [
				{ "time": 0, "rotateMix": 0, "translateMix": 0, "scaleMix": 0, "shearMix": 0 },
				{ "time": 0.3333, "rotateMix": 0, "translateMix": -0.244, "scaleMix": 0, "shearMix": 0 },
				{ "time": 0.6333, "rotateMix": 0, "translateMix": 0, "scaleMix": 0, "shearMix": 0 }
			]
		},
		"deform": {
			"default": {
				"eagle/Group 3": {
					"eagle/Group 2": [
						{ "time": 0.1667 },
						{
							"time": 0.3,
							"offset": 6,
							"vertices": [ 20.87424, -20.40678, 0.90863, -4.5172, 0, 0, -0.51247, -3.59775 ]
						},
						{
							"time": 0.4333,
							"offset": 6,
							"vertices": [ 41.42456, 5.43893, 8.78568, -7.13287 ]
						},
						{ "time": 0.5667 }
					]
				},
				"eagle/flag_01": {
					"eagle/flag_01": [
						{ "time": 0.3333 },
						{
							"time": 0.4333,
							"offset": 6,
							"vertices": [ 3.60426, -4.03616, 0, 0, 0, 0, 0, 0, -2.94926, 29.5856, -19.3021, 25.43738, 0, 0, 0, 0, 0, 0, 1.73131, 8.69388, 12.61092, 7.74086, 5.7858, 18.60933, 0, 0, 7.83361, 18.94443, -15.18792, 32.41882, 1.06824, 26.87878, 11.71344, 15.79448 ]
						},
						{ "time": 0.6333 }
					]
				}
			}
		}
	},
	"idle": {
		"bones": {
			"eagle/mainframe": {
				"translate": [
					{ "time": 0, "x": 0, "y": 0 },
					{ "time": 0.3333, "x": 0, "y": 10.77 },
					{ "time": 0.6667, "x": 0, "y": 0 }
				],
				"scale": [
					{ "time": 0, "x": 1, "y": 1 },
					{ "time": 0.3333, "x": 1.01, "y": 0.99 },
					{ "time": 0.6667, "x": 1, "y": 1 }
				]
			},
			"eagle/wing hand": {
				"translate": [
					{ "time": 0, "x": 0, "y": 0 },
					{ "time": 0.4, "x": 3.56, "y": -13.61 },
					{ "time": 0.6667, "x": 0, "y": 0 }
				]
			},
			"eagle/rwing_gun copy3": {
				"translate": [
					{ "time": 0.0667, "x": 0, "y": 0 },
					{ "time": 0.2667, "x": 0, "y": 8.39 },
					{ "time": 0.6667, "x": 0, "y": 0 }
				]
			},
			"eagle/claw": {
				"rotate": [
					{ "time": 0, "angle": 0 },
					{ "time": 0.3333, "angle": 8.9 },
					{ "time": 0.6667, "angle": 0 }
				]
			},
			"eagle/claw3": {
				"rotate": [
					{ "time": 0.1667, "angle": 0 },
					{ "time": 0.5, "angle": -5.41 },
					{ "time": 0.6667, "angle": 0 }
				]
			},
			"eagle/wing hand2": {
				"translate": [
					{ "time": 0, "x": 0, "y": 0 },
					{ "time": 0.2667, "x": 0, "y": -16.19 },
					{ "time": 0.6667, "x": 0, "y": 0 }
				]
			},
			"eagle/claw6": {
				"rotate": [
					{ "time": 0, "angle": 0 },
					{ "time": 0.3, "angle": 11.77 },
					{ "time": 0.6667, "angle": 0 }
				]
			},
			"eagle/claw5": {
				"rotate": [
					{ "time": 0, "angle": 0 },
					{ "time": 0.3, "angle": -24.45 },
					{ "time": 0.6667, "angle": 0 }
				]
			},
			"eagle/claw4": {
				"rotate": [
					{ "time": 0, "angle": 0 },
					{ "time": 0.3, "angle": -33.78 },
					{ "time": 0.6667, "angle": 0 }
				]
			},
			"eagle/head": {
				"translate": [
					{ "time": 0, "x": 0, "y": 0 },
					{ "time": 0.3333, "x": -9.64, "y": -7.57 },
					{ "time": 0.6667, "x": 0, "y": 0 }
				]
			}
		},
		"deform": {
			"default": {
				"eagle/Group 2": {
					"eagle/Group 3": [
						{ "time": 0.0667 },
						{
							"time": 0.2667,
							"offset": 6,
							"vertices": [ -7.56646, 24.88793, -9.16378, 12.75335 ]
						},
						{
							"time": 0.4667,
							"offset": 6,
							"vertices": [ -12.97107, 42.66503, 0.67886, 4.98839 ]
						},
						{ "time": 0.6667 }
					]
				},
				"eagle/Group 3": {
					"eagle/Group 2": [
						{ "time": 0 },
						{
							"time": 0.2333,
							"offset": 6,
							"vertices": [ -7.56646, 24.88793, -9.16378, 12.75335 ]
						},
						{
							"time": 0.4,
							"offset": 6,
							"vertices": [ -12.97107, 42.66503, 0.67886, 4.98839 ]
						},
						{ "time": 0.6667 }
					]
				},
				"eagle/flag_01": {
					"eagle/flag_01": [
						{ "time": 0 },
						{
							"time": 0.3333,
							"offset": 2,
							"vertices": [ -5.09898, -1.04114, 0, 0, 0, 0, 0, 0, 0, 0, 0, 0, -2.03961, -3.12248, 4.07918, -5.72356, 0, 0, 0, 0, 0, 0, 1.52968, -12.48586, -10.70792, -5.20277, 0, 0, 0, 0, 0, 0, -1.0198, -4.16188, 0, -3.64178, 0, -5.20221 ]
						},
						{
							"time": 0.5,
							"offset": 2,
							"vertices": [ -5.09898, -1.04114, 0, 0, 0, 0, 0, 0, 0, 0, 0, 0, 5.9325, -4.55672, 20.69709, -4.6308, 0, 0, 5.42587, 12.69051, 2.01392, 7.12509, 2.0446, 17.04184, -10.70792, -5.20277, 0, 0, 0, 0, -1.8468, 1.7374, -6.44564, 12.85588, 0, -3.64178, 0, -5.20221 ]
						},
						{ "time": 0.6667 }
					]
				},
				"eagle/flag_02": {
					"eagle/flag_02": [
						{ "time": 0 },
						{
							"time": 0.3333,
							"offset": 4,
							"vertices": [ -5.03468, -1.2E-4, 5.75348, 3.45955, 0, 0, 2.79701, -2.28481 ]
						},
						{
							"time": 0.5,
							"offset": 4,
							"vertices": [ -2.51734, -6.0E-5, 11.59534, -19.81933, -4.18905, -3.3853, 1.39851, -1.1424, 0, 0, -1.67562, 7.19279 ]
						},
						{ "time": 0.6667 }
					]
				}
			}
		}
	},
	"special": {
		"bones": {
			"eagle/head": {
				"rotate": [
					{ "time": 0.1, "angle": 0 },
					{ "time": 0.3333, "angle": -39.46 },
					{ "time": 0.5, "angle": -98.03, "curve": "stepped" },
					{ "time": 0.8333, "angle": -98.03, "curve": "stepped" },
					{ "time": 1.1667, "angle": -98.03 },
					{ "time": 1.6667, "angle": 0 }
				],
				"translate": [
					{ "time": 0, "x": 0, "y": 0 },
					{ "time": 0.3333, "x": -40.1, "y": 21.6 },
					{ "time": 0.5, "x": 22.47, "y": 18.76, "curve": "stepped" },
					{ "time": 0.8333, "x": 22.47, "y": 18.76, "curve": "stepped" },
					{ "time": 1.1667, "x": 22.47, "y": 18.76 },
					{ "time": 1.6667, "x": 0, "y": 0 }
				]
			},
			"eagle/mainframe": {
				"rotate": [
					{ "time": 0, "angle": 0 },
					{ "time": 0.3333, "angle": 98.64, "curve": "stepped" },
					{ "time": 1.1667, "angle": 98.64 },
					{ "time": 1.6667, "angle": 0 }
				]
			},
			"eagle/wing hand": {
				"rotate": [
					{ "time": 0, "angle": 0 },
					{ "time": 0.3333, "angle": -96.1 },
					{ "time": 0.5, "angle": -101.64, "curve": "stepped" },
					{ "time": 0.8333, "angle": -101.64, "curve": "stepped" },
					{ "time": 1.1667, "angle": -101.64 },
					{ "time": 1.6667, "angle": 0 }
				],
				"translate": [
					{ "time": 0, "x": 0, "y": 0 },
					{ "time": 0.3333, "x": -44.11, "y": 63.21 },
					{ "time": 0.5, "x": 51.95, "y": 92.95, "curve": "stepped" },
					{ "time": 0.8333, "x": 51.95, "y": 92.95, "curve": "stepped" },
					{ "time": 1.1667, "x": 51.95, "y": 92.95 },
					{ "time": 1.6667, "x": 0, "y": 0 }
				]
			},
			"eagle/wing hand2": {
				"rotate": [
					{ "time": 0, "angle": 0 },
					{ "time": 0.0667, "angle": -77.63 },
					{ "time": 0.3333, "angle": -106 },
					{ "time": 0.5, "angle": -104.87, "curve": "stepped" },
					{ "time": 0.8333, "angle": -104.87, "curve": "stepped" },
					{ "time": 1.1667, "angle": -104.87 },
					{ "time": 1.6667, "angle": 0 }
				],
				"translate": [
					{ "time": 0, "x": 0, "y": 0 },
					{ "time": 0.0667, "x": -72.49, "y": -82.77 },
					{ "time": 0.3333, "x": -159.06, "y": -1.61 },
					{ "time": 0.5, "x": -161.53, "y": 42.7, "curve": "stepped" },
					{ "time": 0.8333, "x": -161.53, "y": 42.7, "curve": "stepped" },
					{ "time": 1.1667, "x": -161.53, "y": 42.7 },
					{ "time": 1.6667, "x": 0, "y": 0 }
				]
			}
		}
	}
}
}