%YAML 1.1
%TAG !u! tag:unity3d.com,2011:
--- !u!21 &2100000
Material:
  serializedVersion: 6
  m_ObjectHideFlags: 0
  m_PrefabParentObject: {fileID: 0}
  m_PrefabInternal: {fileID: 0}
  m_Name: LiberationSans SDF - Metalic Green
  m_Shader: {fileID: 4800000, guid: dca26082f9cb439469295791d9f76fe5, type: 3}
  m_ShaderKeywords: BEVEL_ON GLOW_ON MASK_HARD OUTLINE_ON UNDERLAY_ON
  m_LightmapFlags: 5
  m_EnableInstancingVariants: 0
  m_DoubleSidedGI: 0
  m_CustomRenderQueue: 3000
  stringTagMap: {}
  disabledShaderPasses: []
  m_SavedProperties:
    serializedVersion: 3
    m_TexEnvs:
    - _BumpMap:
        m_Texture: {fileID: 0}
        m_Scale: {x: 1, y: 1}
        m_Offset: {x: 0, y: 0}
    - _Cube:
        m_Texture: {fileID: 0}
        m_Scale: {x: 1, y: 1}
        m_Offset: {x: 0, y: 0}
    - _FaceTex:
        m_Texture: {fileID: 2800000, guid: ac5a0a5373b36e049bb7f98f88dbc244, type: 3}
        m_Scale: {x: 1, y: 1}
        m_Offset: {x: 0, y: 0}
    - _MainTex:
        m_Texture: {fileID: 2846298, guid: 715b80e429c437e40867928a4e1fc975, type: 2}
        m_Scale: {x: 1, y: 1}
        m_Offset: {x: 0, y: 0}
    - _OutlineTex:
        m_Texture: {fileID: 2800000, guid: c30270e41dccf9441ab56d94261bdcfa, type: 3}
        m_Scale: {x: 1, y: 1}
        m_Offset: {x: 0, y: 0}
    m_Floats:
    - _Ambient: 0
    - _Bevel: 1
    - _BevelClamp: 0.617
    - _BevelOffset: -0.01
    - _BevelRoundness: 1
    - _BevelWidth: 0.071
    - _BumpFace: 0
    - _BumpOutline: 0
    - _ColorMask: 15
    - _Diffuse: 0
    - _FaceDilate: 0.15
    - _FaceUVSpeedX: 0
    - _FaceUVSpeedY: 0
    - _GlowInner: 0.136
    - _GlowOffset: 0.427
    - _GlowOuter: 0.062
    - _GlowPower: 0.941
    - _GradientScale: 10
    - _LightAngle: 3.1416
    - _MaskSoftnessX: 0
    - _MaskSoftnessY: 0
    - _OutlineSoftness: 0
    - _OutlineUVSpeedX: 0
    - _OutlineUVSpeedY: 0
    - _OutlineWidth: 0.219
    - _PerspectiveFilter: 0
    - _Reflectivity: 12.76
    - _ScaleRatioA: 0.9
    - _ScaleRatioB: 0.6525
    - _ScaleRatioC: 0.6525
    - _ScaleX: 1
    - _ScaleY: 1
    - _ShaderFlags: 0
    - _SpecularPower: 1
    - _Stencil: 0
    - _StencilComp: 8
    - _StencilOp: 0
    - _StencilReadMask: 255
    - _StencilWriteMask: 255
    - _TextureHeight: 1024
    - _TextureWidth: 1024
    - _UnderlayDilate: 0
    - _UnderlayOffsetX: 0.5
    - _UnderlayOffsetY: -0.5
    - _UnderlaySoftness: 0.2
    - _VertexOffsetX: 0
    - _VertexOffsetY: 0
    - _WeightBold: 0.5
    - _WeightNormal: 0
    m_Colors:
    - _ClipRect: {r: -10000, g: -10000, b: 10000, a: 10000}
    - _EnvMatrixRotation: {r: 0, g: 0, b: 0, a: 0}
    - _FaceColor: {r: 1, g: 0.007352948, b: 0.007352948, a: 1}
    - _GlowColor: {r: 0, g: 1, b: 0, a: 0.5}
    - _MaskCoord: {r: 0, g: 0, b: 100000, a: 100000}
    - _OutlineColor: {r: 1, g: 1, b: 1, a: 1}
    - _ReflectFaceColor: {r: 0, g: 0, b: 0, a: 1}
    - _ReflectOutlineColor: {r: 0, g: 0, b: 0, a: 1}
    - _SpecularColor: {r: 0.7689687, g: 1, b: 0.75000346, a: 1}
    - _UnderlayColor: {r: 0.90344834, g: 1, b: 0, a: 0}
